Bobby_Project_Draft.knit
…
crime_pivot <- crime_data_recent %>%
  group_by(`Community.Area`, `Primary.Type`) %>%
  summarise(Count = n()) %>%
  ungroup() %>%
  pivot_wider(names_from = `Primary.Type`, 
              values_from = Count,
              values_fill = 0)

## `summarise()` has grouped output by 'Community.Area'. You can override using
## the `.groups` argument.

crime_pivot

## # A tibble: 77 × 32
##    Community.Area ARSON ASSAULT BATTERY BURGLARY CONCEALED CARRY LICENSE VIOLA…¹
##             <int> <int>   <int>   <int>    <int>                           <int>
##  1              1     6     310     750      133                               1
##  2              2     7     290     588      164                               0
##  3              3     4     300     639      131                               2
##  4              4     3     138     300       94                               1
##  5              5     1      67     141       73                               0
##  6              6     6     299     771      203                               4
##  7              7     3     145     289      187                               1
##  8              8     5     628    1435      151                               5
##  9              9     1      20      47       26                               0
## 10             10     4      90     190       70                               0
## # ℹ 67 more rows
## # ℹ abbreviated name: ¹​`CONCEALED CARRY LICENSE VIOLATION`
## # ℹ 26 more variables: `CRIMINAL DAMAGE` <int>,
## #   `CRIMINAL SEXUAL ASSAULT` <int>, `CRIMINAL TRESPASS` <int>,
## #   `DECEPTIVE PRACTICE` <int>, HOMICIDE <int>,
## #   `INTERFERENCE WITH PUBLIC OFFICER` <int>, INTIMIDATION <int>,
## #   `LIQUOR LAW VIOLATION` <int>, `MOTOR VEHICLE THEFT` <int>, …

crime_pivot <- crime_data_recent %>%
  group_by(`Community.Area`, `Primary.Type`) %>%
  summarise(Count = n()) %>%
  ungroup() %>%
  pivot_wider(names_from = `Primary.Type`, 
              values_from = Count,
              values_fill = 0)

## `summarise()` has grouped output by 'Community.Area'. You can override using
## the `.groups` argument.

crime_pivot

## # A tibble: 77 × 32
##    Community.Area ARSON ASSAULT BATTERY BURGLARY CONCEALED CARRY LICENSE VIOLA…¹
##             <int> <int>   <int>   <int>    <int>                           <int>
##  1              1     6     310     750      133                               1
##  2              2     7     290     588      164                               0
##  3              3     4     300     639      131                               2
##  4              4     3     138     300       94                               1
##  5              5     1      67     141       73                               0
##  6              6     6     299     771      203                               4
##  7              7     3     145     289      187                               1
##  8              8     5     628    1435      151                               5
##  9              9     1      20      47       26                               0
## 10             10     4      90     190       70                               0
## # ℹ 67 more rows
## # ℹ abbreviated name: ¹​`CONCEALED CARRY LICENSE VIOLATION`
## # ℹ 26 more variables: `CRIMINAL DAMAGE` <int>,
## #   `CRIMINAL SEXUAL ASSAULT` <int>, `CRIMINAL TRESPASS` <int>,
## #   `DECEPTIVE PRACTICE` <int>, HOMICIDE <int>,
## #   `INTERFERENCE WITH PUBLIC OFFICER` <int>, INTIMIDATION <int>,
## #   `LIQUOR LAW VIOLATION` <int>, `MOTOR VEHICLE THEFT` <int>, …
…
## Warning: Returning more (or less) than 1 row per `summarise()` group was deprecated in
## dplyr 1.1.0.
## ℹ Please use `reframe()` instead.
## ℹ When switching from `summarise()` to `reframe()`, remember that `reframe()`
##   always returns an ungrouped data frame and adjust accordingly.
## Call `lifecycle::last_lifecycle_warnings()` to see where this warning was
## generated.

sample_data = income_list %>%
  full_join(total_crime_list, by = "Community.Area") %>%
  mutate(crime_rate = (total_crime / TOT_POP))

total_crime_list

## # A tibble: 77 × 2
##    Community.Area total_crime
##             <int>       <dbl>
##  1              1        4051
##  2              2        3964
##  3              3        3875
##  4              4        2023
##  5              5        1379
##  6              6        5863
##  7              7        3551
##  8              8       10625
##  9              9         312
## 10             10        1280
## # ℹ 67 more rows
…
